Place,Name,BirthYear,Country,BodyweightKg,Bench1Kg,Bench2Kg,Bench3Kg,Best3BenchKg,TotalKg,WeightClassKg,Division,Event,Sex,Equipment
1,Christian Klein,1970,GER,58.9,157.5,-167.5,167.5,167.5,167.5,60,Masters 1,B,M,Single-ply
2,Ari-Pekka Töllikkö,1970,FIN,58.55,110,120,-130,120,120,60,Masters 1,B,M,Single-ply
3,Luis Judidias Blanch,1969,ESP,56.55,110,-115,115,115,115,60,Masters 1,B,M,Single-ply
4,Ives Maddelein,1970,BEL,58.4,80,-100,-107.5,80,80,60,Masters 1,B,M,Single-ply
1,Olivier Waymel,1966,FRA,66.75,175,180,184,184,184,67.5,Masters 1,B,M,Single-ply
2,Francisco Rodriguez Gutierrez,1969,ESP,66.75,-160,160,-170,160,160,67.5,Masters 1,B,M,Single-ply
3,Gary Prater,1963,GBR,67.45,125,-135,-135,125,125,67.5,Masters 1,B,M,Single-ply
1,Alphonse Cucuzella,1966,FRA,74.05,212.5,217.5,-228,217.5,217.5,75,Masters 1,B,M,Single-ply
2,Atsuo Kozuki,1961,LUX,74.35,-210,210,-215,210,210,75,Masters 1,B,M,Single-ply
3,Vesa Hartikainen,1969,FIN,74.6,185,190,-202.5,190,190,75,Masters 1,B,M,Single-ply
4,Lee Meachen,1965,GBR,74.25,-175,175,-190,175,175,75,Masters 1,B,M,Single-ply
1,Tomi Vikla,1970,FIN,81.8,210,227.5,-240,227.5,227.5,82.5,Masters 1,B,M,Single-ply
2,Johan Lejon,1967,SWE,81.95,195,200,-205,200,200,82.5,Masters 1,B,M,Single-ply
3,Fabrice Bertin,1967,FRA,78.1,192.5,195,-200,195,195,82.5,Masters 1,B,M,Single-ply
4,Veiko Friedrich,1964,GER,82.5,195,-200,-200,195,195,82.5,Masters 1,B,M,Single-ply
5,Roy Berndt,1966,GER,76.9,-192.5,192.5,-195,192.5,192.5,82.5,Masters 1,B,M,Single-ply
6,Stig Frohol,1968,NOR,81.5,192.5,-197.5,-197.5,192.5,192.5,82.5,Masters 1,B,M,Single-ply
7,Yury Rubanov,1967,RUS,81.95,180,190,-197.5,190,190,82.5,Masters 1,B,M,Single-ply
8,Christophe Gauthier,1964,FRA,82.05,190,-195,-195,190,190,82.5,Masters 1,B,M,Single-ply
9,Andrew Howard,1969,GBR,81.1,180,-190,-190,180,180,82.5,Masters 1,B,M,Single-ply
DQ,Jukka Saunamäki,1961,SWE,82,-185,-185,-185,,,82.5,Masters 1,B,M,Single-ply
1,Jiří Kati,1965,CZE,89.35,230,-240,-240,230,230,90,Masters 1,B,M,Single-ply
2,Miroslav Paukert,1963,CZE,89.75,215,222.5,-232.5,222.5,222.5,90,Masters 1,B,M,Single-ply
3,Frans van der Putten,1962,NED,89.1,220,-225,-230,220,220,90,Masters 1,B,M,Single-ply
4,Tony Skalare,1966,SWE,88.7,175,-180,180,180,180,90,Masters 1,B,M,Single-ply
DQ,James Jeffries,1969,GBR,89.5,-240,-240,-260,,,90,Masters 1,B,M,Single-ply
1,Juha Lehto,1964,FIN,99.5,220,232.5,242.5,242.5,242.5,100,Masters 1,B,M,Single-ply
2,Olav Farstad Svein,1965,NOR,96.8,-220,220,-245,220,220,100,Masters 1,B,M,Single-ply
3,Thomas Muller,1962,GER,99.55,210,215,-222.5,215,215,100,Masters 1,B,M,Single-ply
4,Harri Hagfors,1961,FIN,99.35,195,-202.5,-215,195,195,100,Masters 1,B,M,Single-ply
DQ,Philippe Szezepanski,1964,FRA,98.65,-240,-240,-245,,,100,Masters 1,B,M,Single-ply
DQ,Rolf Dilbat,1963,GER,99.1,-245,-245,-245,,,100,Masters 1,B,M,Single-ply
1,Mikael Jaldefors,1966,SWE,109.8,255,270,-287.5,270,270,110,Masters 1,B,M,Single-ply
2,Klaus Semskij,1964,GER,109.1,265,-285,-285,265,265,110,Masters 1,B,M,Single-ply
3,Gilbert Bier,1970,FRA,109.25,-232.5,235,-240,235,235,110,Masters 1,B,M,Single-ply
4,Einar Voldseth Kurt,1966,NOR,109.6,205,-210,-215,205,205,110,Masters 1,B,M,Single-ply
DQ,Arild Kraakenes,1968,NOR,109.4,-235,-235,-237.5,,,110,Masters 1,B,M,Single-ply
DQ,Jukka Lahikainen,1968,FIN,110,-270,-270,-272.5,,,110,Masters 1,B,M,Single-ply
1,Conny Blomgren,1968,SWE,116,270,-275,-275,270,270,125,Masters 1,B,M,Single-ply
2,Kaido Leesmann,1969,EST,122.3,255,-275,-275,255,255,125,Masters 1,B,M,Single-ply
3,János Cserna,1968,HUN,122.75,250,-272.5,-272.5,250,250,125,Masters 1,B,M,Single-ply
4,Kimmo Leppänen,1968,FIN,120.6,225,232.5,-250,232.5,232.5,125,Masters 1,B,M,Single-ply
5,Patrice Lefevre,1962,FRA,123.5,225,232.5,-240,232.5,232.5,125,Masters 1,B,M,Single-ply
6,Pascal Girard,1970,FRA,118,230,-237.5,-237.5,230,230,125,Masters 1,B,M,Single-ply
7,Udo Thielking,1961,GER,123.85,230,-232.5,-240,230,230,125,Masters 1,B,M,Single-ply
DQ,Jiří Krčmář,1962,CZE,115.25,-230,-230,-240,,,125,Masters 1,B,M,Single-ply
DQ,Jouni Nahkuri,1963,FIN,120.55,-215,-215,-215,,,125,Masters 1,B,M,Single-ply
DQ,Jan Westergaard,1966,DEN,121.05,-192.5,-192.5,,,,125,Masters 1,B,M,Single-ply
1,Jean-Yves Minelle,1966,FRA,158.5,275,-290,,275,275,125+,Masters 1,B,M,Single-ply
2,Jürgen Rekittke,1969,GER,159.6,247.5,-257.5,260,260,260,125+,Masters 1,B,M,Single-ply
3,Maik Kleidt,1968,GER,141.3,240,250,-257.5,250,250,125+,Masters 1,B,M,Single-ply
4,Timo Rantala,1963,FIN,134.4,200,210,-247.5,210,210,125+,Masters 1,B,M,Single-ply
5,Cyril Gosteli,1965,SUI,127.7,185,-195,-202.5,185,185,125+,Masters 1,B,M,Single-ply
DQ,Rene Hamers,1968,NED,155.8,-225,-225,-230,,,125+,Masters 1,B,M,Single-ply
1,Alexander Moiseev,1954,BLR,56,85,95,100,100,100,56,Masters 2,B,M,Single-ply
1,Seppo Flink,1953,FIN,59.6,100,102.5,105,105,105,60,Masters 2,B,M,Single-ply
2,Birger Sundstøl,1954,NOR,59.35,90,-100,102.5,102.5,102.5,60,Masters 2,B,M,Single-ply
1,Peter Muigg,1958,AUT,67,142.5,-147.5,147.5,147.5,147.5,67.5,Masters 2,B,M,Single-ply
2,Karsten Gelhar,1957,GER,67.3,-140,142.5,145,145,145,67.5,Masters 2,B,M,Single-ply
3,Erkki Rautiainen,1956,FIN,66.85,105,115,125,125,125,67.5,Masters 2,B,M,Single-ply
1,Clifford Haynes,1960,GBR,74.35,180,185.5,-190,185.5,185.5,75,Masters 2,B,M,Single-ply
2,Jean-Claude Lair,1958,FRA,74.7,165,-170,-170,165,165,75,Masters 2,B,M,Single-ply
3,Pekka Turunen,1960,FIN,74.71,-165,-165,165,165,165,75,Masters 2,B,M,Single-ply
4,Peter Leister,1958,GER,73.5,152.5,-160,-165,152.5,152.5,75,Masters 2,B,M,Single-ply
5,Jari Friis,1954,FIN,74.7,150,-155,-155,150,150,75,Masters 2,B,M,Single-ply
DQ,Paul Pfenninger,1954,GER,74,-170,-180,-180,,,75,Masters 2,B,M,Single-ply
1,Bjarne Synstad,1951,NOR,81.75,200,210,-221,210,210,82.5,Masters 2,B,M,Single-ply
2,Gerhard Baumeister,1952,GER,81.85,150,157.5,165,165,165,82.5,Masters 2,B,M,Single-ply
3,Jos Van Kersbergen,1957,NED,82,-165,-165,165,165,165,82.5,Masters 2,B,M,Single-ply
4,Patrick Mathias,1957,FRA,82.1,155,160,-162.5,160,160,82.5,Masters 2,B,M,Single-ply
5,Philippe Dupre,1956,FRA,81.7,-150,-150,150,150,150,82.5,Masters 2,B,M,Single-ply
6,Gilbert Van Der Heijden,1957,NED,81.1,122.5,-127.5,,122.5,122.5,82.5,Masters 2,B,M,Single-ply
DQ,Kari Nieminen,1951,FIN,82.1,-172.5,-172.5,-172.5,,,82.5,Masters 2,B,M,Single-ply
1,Hans-Jürgen Ehrt,1956,GER,88.85,202.5,-207.5,-207.5,202.5,202.5,90,Masters 2,B,M,Single-ply
2,Arne Boe Kjell,1952,NOR,89,-200,-200,200,200,200,90,Masters 2,B,M,Single-ply
3,Conny Andersson,1959,SWE,89.65,195,-197.5,197.5,197.5,197.5,90,Masters 2,B,M,Single-ply
4,Ilkka Launonen,1954,FIN,87.75,-187.5,-187.5,187.5,187.5,187.5,90,Masters 2,B,M,Single-ply
5,Jean-Pierre Aymon,1954,SUI,89.9,185,-192.5,-192.5,185,185,90,Masters 2,B,M,Single-ply
1,Tarmo Vanhamäki,1960,FIN,97.3,-205,205,-215,205,205,100,Masters 2,B,M,Single-ply
2,Martin Flett,1956,GBR,99.8,180,-207.5,-207.5,180,180,100,Masters 2,B,M,Single-ply
3,Roger Piron,1960,LUX,100,157.5,162.5,165,165,165,100,Masters 2,B,M,Single-ply
DQ,Ian Kinghorn,1959,GBR,98.3,-215,-215,-215,,,100,Masters 2,B,M,Single-ply
1,Jorg Pollman,1959,GER,108.9,215,220,-222.5,220,220,110,Masters 2,B,M,Single-ply
2,Kari Vilppola,1955,FIN,109.8,-220,220,-227.5,220,220,110,Masters 2,B,M,Single-ply
3,Philippe Delapille,1960,FRA,109.85,220,-225,-225,220,220,110,Masters 2,B,M,Single-ply
4,Marco De Meis,1957,GBR,109,-205,210,-222.5,210,210,110,Masters 2,B,M,Single-ply
5,Hans-Peter Falk,1951,GER,109,200,-210,-220,200,200,110,Masters 2,B,M,Single-ply
1,Klaus Homrich,1955,GER,122,227.5,-235,240,240,240,125,Masters 2,B,M,Single-ply
2,Jorg Herzinger,1955,GER,115.4,-205,-205,205,205,205,125,Masters 2,B,M,Single-ply
DQ,Björn Iversen,1955,SWE,115.75,-232.5,-232.5,-237.5,,,125,Masters 2,B,M,Single-ply
1,Eberhard Schwanke,1953,GER,142.1,245,255,-263,255,255,125+,Masters 2,B,M,Single-ply
2,Risto Korhonen,1958,FIN,133.05,-210,215,220,220,220,125+,Masters 2,B,M,Single-ply
3,Renaldo Rossetti,1960,FRA,148.9,-210,-210,215,215,215,125+,Masters 2,B,M,Single-ply
DQ,Kari Alakorpi,1959,FIN,131.3,-215,-215,-215,,,125+,Masters 2,B,M,Single-ply
1,Guy Laurent,1950,FRA,59.3,102.5,107.5,112.5,112.5,112.5,60,Masters 3,B,M,Single-ply
2,Juha Inkinen,1946,FIN,59.4,97.5,-105,105,105,105,60,Masters 3,B,M,Single-ply
1,Claude Sitruk,1950,FRA,66.4,155,-160,-171,155,155,67.5,Masters 3,B,M,Single-ply
2,Dieter Schuck,1948,GER,67.35,122.5,127.5,-130,127.5,127.5,67.5,Masters 3,B,M,Single-ply
3,Heimo Törmä,1950,FIN,67,105,112.5,-117.5,112.5,112.5,67.5,Masters 3,B,M,Single-ply
1,Alex Lee,1942,GBR,74.8,150,-155,155,155,155,75,Masters 3,B,M,Single-ply
2,Hans Joergen Joergensen,1944,DEN,73.3,-150,150,-152.5,150,150,75,Masters 3,B,M,Single-ply
3,Jacques Bette,1950,FRA,74.25,145,-152.5,-152.5,145,145,75,Masters 3,B,M,Single-ply
4,Sergey Nikiforov,1947,RUS,74.55,-140,-140,140,140,140,75,Masters 3,B,M,Single-ply
5,Karl-Heinz Spahn,1948,GER,74.65,-120,-120,120,120,120,75,Masters 3,B,M,Single-ply
1,Friedhelm Fuhr,1950,GER,81.4,-175,-175,175,175,175,82.5,Masters 3,B,M,Single-ply
2,Louis Escolano,1945,FRA,82.45,165,172.5,-175,172.5,172.5,82.5,Masters 3,B,M,Single-ply
3,Reima Häkkinen,1950,FIN,81.1,160,167.5,-175,167.5,167.5,82.5,Masters 3,B,M,Single-ply
4,Gunter Ute,1948,GER,81.35,157.5,160,-165,160,160,82.5,Masters 3,B,M,Single-ply
5,Allan Eriksson,1946,SWE,76.15,150,-155,-155,150,150,82.5,Masters 3,B,M,Single-ply
6,Harald Will,1940,GER,82.3,140,147.5,-150,147.5,147.5,82.5,Masters 3,B,M,Single-ply
7,William McFadyen,1934,GBR,80.55,-145,-145,145,145,145,82.5,Masters 3,B,M,Single-ply
1,Juhani Lindholm,1949,FIN,87.7,170,175,180,180,180,90,Masters 3,B,M,Single-ply
2,Uladzimir Halavach,1950,BLR,88.6,155,-160,162.5,162.5,162.5,90,Masters 3,B,M,Single-ply
3,Fred Marienfeldt,1948,GER,86.7,155,160,-165,160,160,90,Masters 3,B,M,Single-ply
4,Gaetan Guarino,1949,FRA,84.35,137.5,142.5,-147.5,142.5,142.5,90,Masters 3,B,M,Single-ply
5,Mike Edwards,1946,GBR,87.95,127.5,-132.5,-132.5,127.5,127.5,90,Masters 3,B,M,Single-ply
6,Jiří Poutník,1946,CZE,82.6,120,125,-127.5,125,125,90,Masters 3,B,M,Single-ply
7,Tapani Puhakka,1944,FIN,89.5,125,-135,-145,125,125,90,Masters 3,B,M,Single-ply
DQ,Karel Achtner,1944,CZE,87.9,-152.5,-152.5,-152.5,,,90,Masters 3,B,M,Single-ply
1,Matti Silvander,1944,FIN,99.25,180,190,-200,190,190,100,Masters 3,B,M,Single-ply
2,Günter Wittkowski,1940,GER,90.9,155,165,167.5,167.5,167.5,100,Masters 3,B,M,Single-ply
3,Jiří Horník,1948,CZE,97.35,-160,-160,162.5,162.5,162.5,100,Masters 3,B,M,Single-ply
4,Tom Collins,1946,GBR,98.1,162.5,-167.5,-167.5,162.5,162.5,100,Masters 3,B,M,Single-ply
5,Peer Bjaaland,1942,NOR,90.4,-155,155,-162.5,155,155,100,Masters 3,B,M,Single-ply
6,Rolf Roye,1948,GER,98.15,152.5,-160,-160,152.5,152.5,100,Masters 3,B,M,Single-ply
7,Michel Dairou,1949,FRA,98.4,-152.5,152.5,-157.5,152.5,152.5,100,Masters 3,B,M,Single-ply
8,František Esser,1946,CZE,94.75,150,-157.5,-162.5,150,150,100,Masters 3,B,M,Single-ply
9,Adolf Rohrbacher,1938,AUT,91.4,120,-125,-125,120,120,100,Masters 3,B,M,Single-ply
10,Klaus Feldmann,1936,GER,98,115,-120,-120,115,115,100,Masters 3,B,M,Single-ply
1,Finn Knudsen,1947,DEN,106,195,205,-210,205,205,110,Masters 3,B,M,Single-ply
2,Georg Ramsauer,1947,GER,101.65,160,165,-172.5,165,165,110,Masters 3,B,M,Single-ply
3,Kurt Nygård,1946,FIN,106.85,155,165,-172.5,165,165,110,Masters 3,B,M,Single-ply
4,Reijo Jaakkola,1948,FIN,103.6,150,157.5,-165,157.5,157.5,110,Masters 3,B,M,Single-ply
5,Franz Mracek,1947,AUT,104,-150,-150,150,150,150,110,Masters 3,B,M,Single-ply
6,Frederick Smith,1947,GBR,107.9,122.5,127.5,-130,127.5,127.5,110,Masters 3,B,M,Single-ply
1,Allan Fuglsang,1950,DEN,112.3,182.5,190,200,200,200,125,Masters 3,B,M,Single-ply
2,Christer Nylund,1944,FIN,117.45,200,-212.5,-212.5,200,200,125,Masters 3,B,M,Single-ply
3,Mujir El Alami,1946,SWE,113.35,-160,160,165,165,165,125,Masters 3,B,M,Single-ply
4,Ivan Veselý,1949,CZE,120.2,155,-157.5,-177.5,155,155,125,Masters 3,B,M,Single-ply
1,Petr Macák,1950,CZE,167,230,-237.5,237.5,237.5,237.5,125+,Masters 3,B,M,Single-ply
2,Raul Randmäe,1948,EST,145.25,200,-210,210,210,210,125+,Masters 3,B,M,Single-ply
3,Norbert Schade,1948,GER,131.2,-200,205,-210,205,205,125+,Masters 3,B,M,Single-ply
4,Georg Boström,1947,SWE,129.9,75,,,75,75,125+,Masters 3,B,M,Single-ply
1,Marion Friedrich,1965,GER,46.4,87.5,92.5,95,95,95,48,Masters 1,B,F,Single-ply
2,Christine Lesellier,1963,FRA,47,65,-67.5,67.5,67.5,67.5,48,Masters 1,B,F,Single-ply
3,Brigitte Landon,1961,FRA,47.8,60,62.5,-65,62.5,62.5,48,Masters 1,B,F,Single-ply
1,Magdolna Petróczki,1968,HUN,51,75,80,-85,80,80,52,Masters 1,B,F,Single-ply
2,Eira Pajuharju,1964,FIN,51.8,65,70,75,75,75,52,Masters 1,B,F,Single-ply
1,Sylvie Mingot,1969,FRA,53.85,110,115,120,120,120,56,Masters 1,B,F,Single-ply
2,Gabriela Hirner,1965,GER,54.95,95,100,-102.5,100,100,56,Masters 1,B,F,Single-ply
3,Ann Kristin Olsen,1967,NOR,55.3,75,85,92.5,92.5,92.5,56,Masters 1,B,F,Single-ply
1,Marie-Christine Pracella,1965,FRA,57.55,110,115,120.5,120.5,120.5,60,Masters 1,B,F,Single-ply
2,Monika Schnoltzer,1961,GER,59.95,90,100,-102.5,100,100,60,Masters 1,B,F,Single-ply
1,Isabelle Iliev,1967,FRA,61.75,110,-115,115,115,115,67.5,Masters 1,B,F,Single-ply
2,Patricia Maciejewski,1961,FRA,65.3,97.5,102.5,105,105,105,67.5,Masters 1,B,F,Single-ply
3,Tarja Uppala,1965,FIN,65.9,97.5,-102.5,105,105,105,67.5,Masters 1,B,F,Single-ply
1,Satu Luoto,1969,FIN,71.45,102.5,115,-117.5,115,115,75,Masters 1,B,F,Single-ply
2,Heli Valtonen,1965,FIN,73.4,-85,85,92.5,92.5,92.5,75,Masters 1,B,F,Single-ply
1,Claudia Weinzierl,1970,GER,82.5,120,125,130,130,130,82.5,Masters 1,B,F,Single-ply
1,Susanne Rekittke,1965,GER,89.75,122.5,-125,-130,122.5,122.5,90,Masters 1,B,F,Single-ply
2,Jennifer Nicoll,1966,GBR,86.5,107.5,-120,-127.5,107.5,107.5,90,Masters 1,B,F,Single-ply
3,Nathalie Gransard,1964,FRA,83.2,90,-95,,90,90,90,Masters 1,B,F,Single-ply
1,Joanne Schaefer,1967,NED,107.5,-170,170,,170,170,90+,Masters 1,B,F,Single-ply
2,Leila Duhem,1963,FRA,93.15,135,-145,150,150,150,90+,Masters 1,B,F,Single-ply
3,Annika Jutila,1962,FIN,94.7,-92.5,92.5,-102.5,92.5,92.5,90+,Masters 1,B,F,Single-ply
1,Françoise Heligon,1943,FRA,47.8,57.5,60,62.5,62.5,62.5,48,Masters 2,B,F,Single-ply
1,Karin Engelbrecht,1956,GER,51.2,80,82.5,85,85,85,52,Masters 2,B,F,Single-ply
2,Martine Roche,1956,FRA,50.4,-75,-77.5,77.5,77.5,77.5,52,Masters 2,B,F,Single-ply
3,Irmeli Vaulakorpi,1954,FIN,51.8,70,75,-80,75,75,52,Masters 2,B,F,Single-ply
1,Pia Kring,1957,GER,55.35,77.5,80,-82.5,80,80,56,Masters 2,B,F,Single-ply
2,Nadine Vigouroux,1960,FRA,54.25,72.5,-77.5,-80,72.5,72.5,56,Masters 2,B,F,Single-ply
3,Lydie Molling Grouet,1960,FRA,55.15,67.5,-70,-72.5,67.5,67.5,56,Masters 2,B,F,Single-ply
1,Lucette Raffier,1957,FRA,57.8,75,77.5,-80,77.5,77.5,60,Masters 2,B,F,Single-ply
2,Martine Parfait,1957,FRA,56.55,70,72.5,-75,72.5,72.5,60,Masters 2,B,F,Single-ply
3,Marianne Lankau,1953,GER,59.85,60,62.5,-65,62.5,62.5,60,Masters 2,B,F,Single-ply
4,Ursula Nothnagel,1936,GER,59.8,57.5,-60,-60,57.5,57.5,60,Masters 2,B,F,Single-ply
1,Marlies Winkel,1957,GER,64.55,95,-97.5,100,100,100,67.5,Masters 2,B,F,Single-ply
2,Evelyne Herbin,1956,FRA,66.95,95,-100,100,100,100,67.5,Masters 2,B,F,Single-ply
3,Anita Thimm,1950,GER,62.55,75,77.5,80,80,80,67.5,Masters 2,B,F,Single-ply
1,Ursula Häuser,1960,GER,73.7,107.5,-112.5,-118,107.5,107.5,75,Masters 2,B,F,Single-ply
2,Martine Laurent,1951,FRA,74.1,70,75,77.5,77.5,77.5,75,Masters 2,B,F,Single-ply
3,Maritta Jaurola,1950,FIN,71.1,65,70,-75,70,70,75,Masters 2,B,F,Single-ply
1,Anke Beninga,1954,GER,76.9,82.5,87.5,-92.5,87.5,87.5,82.5,Masters 2,B,F,Single-ply
1,Hana Takáčová,1954,CZE,84.85,135,140,143,143,143,90,Masters 2,B,F,Single-ply
2,Pirkko Inkinen,1950,FIN,83.5,55,60,67.5,67.5,67.5,90,Masters 2,B,F,Single-ply
1,Eva Speth,1954,GER,99.6,130,135,137.5,137.5,137.5,90+,Masters 2,B,F,Single-ply
2,Tiiu Kimber,1948,EST,91.7,85,-87.5,-90,85,85,90+,Masters 2,B,F,Single-ply
