Name,Division,BodyweightKg,WeightClassKg,Bench1Kg,Bench2Kg,Bench3Kg,Best3BenchKg,TotalKg,Place,Sex,Event,AgeClass,Equipment
Judith McGauley,F-C-M4,58.3,63,-37.5,37.5,-40.5,37.5,37.5,1,F,B,70-79,Raw
Nicola Elding,F-C-M2,67.1,72,47.5,55,-57.5,55,55,1,F,B,50-59,Raw
Kelly Clark,F-C-M2,68.6,72,47.5,52.5,-55,52.5,52.5,2,F,B,50-59,Raw
Julie Rose,F-C-M2,71.6,72,50,-52.5,-55,50,50,3,F,B,50-59,Raw
Helen Hughes,F-C-M1,55.9,57,75,80,-85,80,80,1,F,B,39.5-48.5,Raw
Galit Goldshmid,F-C-M1,61.2,63,75,80,-82.5,80,80,1,F,B,39.5-48.5,Raw
Wendie Kirkland,F-C-M1,70.8,72,67.5,-72.5,75,75,75,1,F,B,39.5-48.5,Raw
Kelly Phasey,F-C-M1,124,84+,95,101,103,103,103,1,F,B,39.5-48.5,Raw
Jacqueline Gough,F-C-M1,151.8,84+,92.5,100.5,102.5,102.5,102.5,2,F,B,39.5-48.5,Raw
Amanda Hughes,F-C-Snr,50.8,52,55,60,-62.5,60,60,1,F,B,0-22.5,Raw
Ellie Steel,F-C-Snr,58,63,87.5,92.5,97.5,97.5,97.5,1,F,B,0-22.5,Raw
Faye Jordan,F-C-Snr,62,63,-67.5,70,75,75,75,2,F,B,0-22.5,Raw
Amina Bux,F-C-Snr,61.6,63,62.5,67.5,-72.5,67.5,67.5,3,F,B,0-22.5,Raw
Rachael Camp,F-C-Snr,60.3,63,50,55,-57.5,55,55,4,F,B,0-22.5,Raw
Sophie Hardy,F-C-Snr,67.7,72,70,75,77.5,77.5,77.5,1,F,B,0-22.5,Raw
Christina Appleby-Phillips,F-C-Snr,80,84,100,107.5,112.5,112.5,112.5,1,F,B,0-22.5,Raw
Sarah Bouskill,F-C-Snr,117.4,84+,95,-100,-100,95,95,1,F,B,0-22.5,Raw
Katrina Sweatman,F-C-Snr,111.3,84+,82.5,87.5,90,90,90,2,F,B,0-22.5,Raw
Lydia Forrest,F-C-JR,51.6,52,45,47.5,50,50,50,1,F,B,0-22.5,Raw
Amrita Paneasr,F-C-JR,47.8,52,42.5,-47.5,47.5,47.5,47.5,2,F,B,0-22.5,Raw
Lucy Hart,F-C-JR,61.1,63,52.5,57.5,-62.5,57.5,57.5,1,F,B,0-22.5,Raw
Mariah Connor-Brown,F-C-SJ,83.9,84,67.5,72.5,-75,72.5,72.5,1,F,B,0-17.5,Raw
Ted Brown,M-C-M5,58.6,59,70,75,77.5,77.5,77.5,1,M,B,80-89,Raw
Tom Cox,M-C-M4,91.2,93,107.5,112.5,115,115,115,1,M,B,70-79,Raw
Michael James,M-C-M3,65.5,66,95,100,-102.5,100,100,1,M,B,60-69,Raw
Bill Taylor,M-C-M3,65.5,66,82.5,87.5,-92.5,87.5,87.5,2,M,B,60-69,Raw
Bob Baxter,M-C-M3,104,105,125,135,-137.5,135,135,1,M,B,60-69,Raw
Allan Hulme,M-C-M3,109.1,120,162.5,165,170,170,170,1,M,B,60-69,Raw
David Horne,M-C-M2,82.6,83,102.5,107.5,-110,107.5,107.5,1,M,B,50-59,Raw
Andy Rigby,M-C-M2,92.9,93,190,200,-206,200,200,1,M,B,50-59,Raw
Kevin Barrs,M-C-M2,84.6,93,130,135,140,140,140,2,M,B,50-59,Raw
Harold Houldershaw,M-C-M2,92.3,93,85,90,95,95,95,3,M,B,50-59,Raw
Darren Lloyd,M-C-M2,104.1,105,150,157.5,-165,157.5,157.5,1,M,B,50-59,Raw
Jasvinder Cheema,M-C-M1,82.3,83,145,152.5,155,155,155,1,M,B,39.5-48.5,Raw
Sheridan Wray,M-C-M1,92.9,93,172.5,185,192.5,192.5,192.5,1,M,B,39.5-48.5,Raw
Jason Talbut,M-C-M1,92.7,93,150,157.5,162.5,162.5,162.5,2,M,B,39.5-48.5,Raw
Harbans Bansal,M-C-M1,97.2,105,180,190,195,195,195,1,M,B,39.5-48.5,Raw
Dean Bowring,M-C-M1,104.8,105,172.5,182.5,-190.5,182.5,182.5,2,M,B,39.5-48.5,Raw
Peter Szoke,M-C-M1,107.1,120,160,170,177.5,177.5,177.5,1,M,B,39.5-48.5,Raw
Emmanuel Franklin,M-C-Sen,73.4,74,140,152.5,158,158,158,1,M,B,0-22.5,Raw
Danny Potter,M-C-Sen,73.8,74,147.5,152.5,-158.5,152.5,152.5,2,M,B,0-22.5,Raw
Ben Richens,M-C-Sen,73.8,74,107.5,112.5,-117.5,112.5,112.5,3,M,B,0-22.5,Raw
Christopher Teague,M-C-Sen,82.8,83,140,152.5,-160,152.5,152.5,1,M,B,0-22.5,Raw
Andy Champ,M-C-Sen,92.7,93,162.5,-170,-175,162.5,162.5,1,M,B,0-22.5,Raw
Chris Farrow,M-C-Sen,118,120,150,160,-170,160,160,1,M,B,0-22.5,Raw
Mathieu Brignall,M-C-Sen,160.2,120+,190,202.5,210,210,210,1,M,B,0-22.5,Raw
Joe Strike,M-C-JR,64.7,66,92.5,97.5,100,100,100,1,M,B,0-22.5,Raw
Rhys Williams,M-C-JR,59.3,66,45,47.5,50,50,50,2,M,B,0-22.5,Raw
Bohdan Bon,M-C-JR,83,83,150,162.5,,162.5,162.5,1,M,B,0-22.5,Raw
Joey Watson,M-C-JR,93,93,-160,160,170,170,170,1,M,B,0-22.5,Raw
Bradley Horne,M-C-JR,104.9,105,167.5,177.5,-183.5,177.5,177.5,1,M,B,0-22.5,Raw
Michelle Franklin,F-E-M2,55,57,72.5,-85.5,-85.5,72.5,72.5,1,F,B,50-59,Single-ply
Jo Beck,F-E-M2,68,72,65,67.5,70,70,70,1,F,B,50-59,Single-ply
Wendie Kirkland,F-E-M1,69,72,92.5,97.5,102.5,102.5,102.5,1,F,B,39.5-48.5,Single-ply
Rebecca Williams,F-E-M1,82,84,90,100.5,-105,100.5,100.5,1,F,B,39.5-48.5,Single-ply
Jacqueline Gough,F-E-M1,88,84+,-142.5,142.5,-158,142.5,142.5,1,F,B,39.5-48.5,Single-ply
Linzi Waite,F-E-Snr,52,52,65,70,-75.5,70,70,1,F,B,0-22.5,Single-ply
Ellie Steel,F-E-Snr,61,63,130,-140,-140,130,130,1,F,B,0-22.5,Single-ply
Faye Jordan,F-E-Snr,62,63,95,102.5,-125,102.5,102.5,2,F,B,0-22.5,Single-ply
Alana Pash,F-E-Snr,62,63,87.5,92.5,95,95,95,3,F,B,0-22.5,Single-ply
Sarah Bouskill,F-E-Snr,89,84+,142.5,150,-165.5,150,150,1,F,B,0-22.5,Single-ply
Lucy Hart,F-E-JR,62,63,70,77.5,-82.5,77.5,77.5,1,F,B,0-22.5,Single-ply
James McGill,M-E-M4,82.3,83,-92.5,-95,-95,,,DQ,M,B,70-79,Single-ply
Glyn Belsher,M-E-M3,93,93,-140,140,152.5,152.5,152.5,1,M,B,60-69,Single-ply
Bob Baxter,M-E-M3,104,105,145,,,145,145,1,M,B,60-69,Single-ply
Kevin Barrs,M-E-M2,84.6,93,140,-162.5,-170,140,140,1,M,B,50-59,Single-ply
Stewart Cowan,M-E-M2,112.5,120,-215,-220,-220,,,DQ,M,B,50-59,Single-ply
Jason Talbut,M-E-M1,92.7,93,190,202.5,207.5,207.5,207.5,1,M,B,39.5-48.5,Single-ply
Dean Bowring,M-E-M1,104.8,105,245,-255,,245,245,1,M,B,39.5-48.5,Single-ply
David Wozniak,M-E-M1,104.1,105,-190,190,200,200,200,2,M,B,39.5-48.5,Single-ply
Peter Szoke,M-E-M1,107.1,120,-190,190,225,225,225,1,M,B,39.5-48.5,Single-ply
Emmanuel Franklin,M-E-Snr,73.4,74,190,200,-210,200,200,1,M,B,0-22.5,Single-ply
David Murray,M-E-Snr,82.1,83,140,150,-160,150,150,1,M,B,0-22.5,Single-ply
Andy Champ,M-E-Snr,92.7,93,-220,-225,225,225,225,1,M,B,0-22.5,Single-ply
Chris Farrow,M-E-Snr,118,120,190,200,210,210,210,1,M,B,0-22.5,Single-ply
Callum Sidebottom,M-E-Snr,117.9,120,190,200,-210,200,200,2,M,B,0-22.5,Single-ply
Graham Mellor,M-E-Snr,164.8,120+,-260,-320,-320,,,DQ,M,B,0-22.5,Single-ply
Kristopher Franklin,M-E-JR,81.9,83,190,205,-215,205,205,1,M,B,0-22.5,Single-ply
Jack Johnson,M-E-JR,119.5,120,275,-290,-290,275,275,1,M,B,0-22.5,Single-ply
