Place,Name,State,WeightClassKg,BodyweightKg,Age,Best3SquatKg,Best3BenchKg,Best3DeadliftKg,TotalKg,Sex,Division,Equipment,Bench4Kg,Deadlift4Kg,Event
1,Stacia-Al Mahoe,HI,44,43.9,18,103,70.5,145.5,319,F,Junior Women 18-19,Raw,75,150,SBD
1,Lakita Lam,CA,52,49.9,22,100,47.5,110,257.5,F,Junior Women 20-23,Raw,,,SBD
1,Monica Eng,CA,56,55.8,23,120,60,135,315,F,Junior Women 20-23,Raw,,,SBD
2,Kassia Ho,CA,56,55.4,23,117.5,52.5,137.5,307.5,F,Junior Women 20-23,Raw,,,SBD
1,Cynthia Leu,CA,60,59.5,23,125,72.5,157.5,355,F,Junior Women 20-23,Raw,,,SBD
2,Heidi Van Mastrigt,CA,60,59.5,23,107.5,50,132.5,290,F,Junior Women 20-23,Raw,,,SBD
1,Megan Kitagawa,CA,67.5,62,23,147.5,83,178,408.5,F,Junior Women 20-23,Raw,,,SBD
2,Sarah Griest,CA,67.5,67.1,23,115,62.5,132.5,310,F,Junior Women 20-23,Raw,,,SBD
1,Stacia-Al Mahoe,HI,44,43.9,18,103,70.5,145.5,319,F,Open Women,Raw,,,SBD
1,Claudia Saillant,FL,48,47.9,33,87.5,55,120,262.5,F,Open Women,Raw,,,SBD
1,Jenn Rotsinger,FL,52,50.3,37,150,90,180,420,F,Open Women,Raw,,,SBD
2,Emily Hu #1,CA,52,51.8,33,125,106,170,401,F,Open Women,Raw,,,SBD
3,Stacy Amorim,CA,52,51.3,38,105,57.5,142.5,305,F,Open Women,Raw,,,SBD
4,Linda Calderon,CA,52,51.2,24,70,37.5,100,207.5,F,Open Women,Raw,,,SBD
1,Katrina Dajano,CA,56,55.4,26,105,85,165,355,F,Open Women,Raw,,,SBD
1,Cynthia Leu,CA,60,59.5,23,125,72.5,157.5,355,F,Open Women,Raw,,,SBD
2,Natalie Sardinia,CA,60,59.6,35,112.5,60,165,337.5,F,Open Women,Raw,,,SBD
3,Angela Febre,CA,60,58.7,31,117.5,65,147.5,330,F,Open Women,Raw,,,SBD
4,Renielle Agustin,CA,60,58.8,28,110,52.5,152.5,315,F,Open Women,Raw,,,SBD
5,Madai Nguyen,CA,60,58.5,27,107.5,60,117.5,285,F,Open Women,Raw,,,SBD
1,Chinwendu Utom,CA,67.5,65.5,26,160,87.5,185,432.5,F,Open Women,Raw,,,SBD
2,Pamela Bosko,CAN,67.5,66.9,42,152.5,82.5,170,405,F,Open Women,Raw,,,SBD
3,Sara Olguin,AZ,67.5,66.2,18,137.5,70,137.5,345,F,Open Women,Raw,,,SBD
4,Elyssa Verosa,CA,67.5,64.9,24,117.5,65,152.5,335,F,Open Women,Raw,,,SBD
1,Jenna Doyle,CA,75,73.5,24,150,70,192.5,412.5,F,Open Women,Raw,,,SBD
2,Rebecca Lorch,NY,75,74,25,115,85,157.5,357.5,F,Open Women,Raw,,,SBD
DQ,Cynthia Lee,CA,75,74.6,32,132.5,-57.5,150,,F,Open Women,Raw,,,SBD
1,Liezel Francisco,CA,82.5,80.4,27,140,67.5,137.5,345,F,Open Women,Raw,,,SBD
1,Natalie Sardinia,CA,60,59.6,35,112.5,60,165,337.5,F,Submaster Women 35-39,Raw,,,SBD
1,Deirdre Ramsey,CA,67.5,62.6,39,110,67.5,130,307.5,F,Sub-Master Women 35-39,Raw,,,SBD
1,Deborah Stern,CA,48,47.3,65,45,37.5,82.5,165,F,Master Women 65-69,Raw,,,SBD
DQ,Dana Shim-Palama,HI,52,51.8,54,-70,47.5,122.5,,F,Master Women 50-54,Raw,,,SBD
1,Lea Swenson,CA,56,55.4,42,92.5,42.5,117.5,252.5,F,Master Women 40-44,Raw,,,SBD
1,Brian Nguyen,CA,56,53.1,22,165,110,207.5,482.5,M,Junior Men 20-23,Raw,,,SBD
1,Kyan Angelo,CA,67.5,66.9,22,182.5,115,225,522.5,M,Junior Men 20-23,Raw,,,SBD
1,Nathaniel Geminiano,CA,75,74.1,22,225,142.5,230,597.5,M,Junior Men 20-23,Raw,,,SBD
2,Darren Sun,CA,75,74.1,22,192.5,122.5,227.5,542.5,M,Junior Men 20-23,Raw,,,SBD
3,Evan Loo,CA,75,73.7,22,160,100,195,455,M,Junior Men 20-23,Raw,,,SBD
4,Steven Machek,CA,75,72.2,23,142.5,85,190,417.5,M,Junior Men 20-23,Raw,,,SBD
5,John McLucas,CA,75,74.8,20,107.5,77.5,115,300,M,Junior Men 20-23,Raw,,,SBD
DQ,Randy Lee-Apelo,CA,75,73.9,21,175,-107.5,185,,M,Junior Men 20-23,Raw,,,SBD
1,William Valle,CA,82.5,82.1,22,242.5,155,260,657.5,M,Junior Men 20-23,Raw,,,SBD
2,Nicholas Kan,CA,82.5,81.3,23,197.5,110,237.5,545,M,Junior Men 20-23,Raw,,,SBD
3,Jacob Semsem,CA,82.5,81,20,172.5,122.5,200,495,M,Junior Men 20-23,Raw,,,SBD
4,Ian Gilbert,CA,82.5,81.7,23,167.5,130,197.5,495,M,Junior Men 20-23,Raw,,,SBD
1,Paulo Tanaka,CA,90,89.1,22,227.5,142.5,260,630,M,Junior Men 20-23,Raw,,,SBD
2,Gleb Dmitriyenko,CA,90,88.1,23,187.5,142.5,215,545,M,Junior Men 20-23,Raw,,,SBD
3,Chase Brower,CA,90,88.5,23,180,125,227.5,532.5,M,Junior Men 20-23,Raw,,,SBD
4,Steven Nguyen,CA,90,85.2,23,147.5,115,205,467.5,M,Junior Men 20-23,Raw,,,SBD
1,Kyle Alexander,CA,100,98.7,19,277.5,152.2,292.5,722.2,M,Junior Men 18-19,Raw,,,SBD
2,Tommy Truong,CA,100,99.4,18,215,102.5,235,552.5,M,Junior Men 18-19,Raw,,,SBD
1,Artemio Zambrano,CA,100,99.5,21,227.5,127.5,277.5,632.5,M,Junior Men 20-23,Raw,,,SBD
1,Alan Lee,CA,56,55.2,22,145,90,192.5,427.5,M,Open Men,Raw,,,SBD
1,Joe Seiden,CA,67.5,67.1,23,195,155,242.5,592.5,M,Open Men,Raw,,,SBD
2,Charles Takatsuka,CA,67.5,65.5,30,182.5,130,227.5,540,M,Open Men,Raw,,,SBD
3,Dennis Lim,CA,67.5,66.8,29,180,117.5,225,522.5,M,Open Men,Raw,,,SBD
4,Lawrence Tagoe,CA,67.5,65.5,24,145,80,197.5,422.5,M,Open Men,Raw,,,SBD
5,Timothy Wu,CA,67.5,66.8,30,60,112.5,185,357.5,M,Open Men,Raw,,,SBD
1,Dane Steadman,AZ,75,74.3,17,242.5,172.5,260,675,M,Open Men,Raw,,,SBD
2,Jason Manenkoff,NJ,75,74.6,32,237.5,177.5,252.5,667.5,M,Open Men,Raw,,,SBD
3,Joshua Moore,CA,75,73.9,24,205,165,237.5,607.5,M,Open Men,Raw,,,SBD
4,Mike Russell,CA,75,74.6,34,217.5,125,237.5,580,M,Open Men,Raw,,,SBD
5,Brandon Tay,CA,75,72.5,27,212.5,140,210,562.5,M,Open Men,Raw,,,SBD
6,Justin Vu,CA,75,74.1,24,165,130,215,510,M,Open Men,Raw,,,SBD
7,Jeremy Magalong,CA,75,74.9,32,185,100,225,510,M,Open Men,Raw,,,SBD
8,John Casey,CA,75,73.6,26,165,105,205,475,M,Open Men,Raw,,,SBD
1,Anthony Hobaica,NY,82.5,80.8,28,275,202.5,280,757.5,M,Open Men,Raw,,,SBD
2,William Valle,CA,82.5,82.1,22,242.5,155,260,657.5,M,Open Men,Raw,,,SBD
3,Emad Nayef,AUS,82.5,82.2,38,245,142.5,252.5,640,M,Open Men,Raw,,,SBD
4,Michael Cohal,CA,82.5,81.1,27,237.5,150,250,637.5,M,Open Men,Raw,,,SBD
5,Timothy DiCesare,CA,82.5,82.2,28,195,122.5,272.5,590,M,Open Men,Raw,,,SBD
6,Robert Patxot,FL,82.5,82.2,20,217.5,120,250,587.5,M,Open Men,Raw,,,SBD
1,Josh Lentz,IA,90,89.8,27,287.5,230,302.5,820,M,Open Men,Raw,,,SBD
2,Brett Chrisman,AZ,90,89.7,26,272.5,200,332.5,805,M,Open Men,Raw,,,SBD
3,Carlos Moran,MA,90,89,26,295,200,305,800,M,Open Men,Raw,,,SBD
4,Adam Miller,FL,90,84.2,34,272.5,182.5,287.5,742.5,M,Open Men,Raw,,,SBD
5,Robbie Sardinia,CA,90,89,31,252.5,185,292.5,730,M,Open Men,Raw,,,SBD
6,Dave Smith,CA,90,88.8,32,240,190,290,720,M,Open Men,Raw,,,SBD
7,David Dinh,CA,90,89.3,28,187.5,117.5,227.5,532.5,M,Open Men,Raw,,,SBD
8,Diego Hernandez,CA,90,87.5,27,182.5,120,212.5,515,M,Open Men,Raw,,,SBD
9,Mark Ying,CA,90,88,24,170,127.5,200,497.5,M,Open Men,Raw,,,SBD
10,Ivan Juarez,CA,90,88.9,28,152.5,117.5,227.5,497.5,M,Open Men,Raw,,,SBD
DQ,Daniel Dagones,CA,90,87.4,30,185,100,-205,,M,Open Men,Raw,,,SBD
1,Sean Brownstein,FL,100,99.5,24,277.5,222.5,292.5,792.5,M,Open Men,Raw,,,SBD
2,Mike Peltz,AZ,100,98.4,29,260,202.5,327.5,790,M,Open Men,Raw,,,SBD
3,Amit Sapir,CAN,100,96.9,33,332.5,182.5,275,790,M,Open Men,Raw,,,SBD
4,Mathew Ommen,CA,100,98.2,26,267.5,200,282.5,750,M,Open Men,Raw,,,SBD
5,Mark Chieco,NY,100,98.4,38,260,222.5,250,732.5,M,Open Men,Raw,,,SBD
6,Kyle Alexander,CA,100,98.7,19,277.5,152.2,292.5,722.2,M,Open Men,Raw,,,SBD
7,Bradley Schofield,CA,100,96.9,32,250,150,282.5,682.5,M,Open Men,Raw,,,SBD
8,Eugene Chuwrov,CA,100,99.7,38,217.5,157.5,255,630,M,Open Men,Raw,,,SBD
9,Andy Garcia,AZ,100,98.8,29,207.5,147.5,227.5,582.5,M,Open Men,Raw,,,SBD
10,Alexander Campbell,CA,100,96,34,200,165,217.5,582.5,M,Open Men,Raw,,,SBD
11,Bryan Hall,CA,100,100,32,182.5,137.5,255,575,M,Open Men,Raw,,,SBD
12,Freeman Levinrad,CA,100,97.5,29,187.5,125,190,502.5,M,Open Men,Raw,,,SBD
DQ,Tony McCreary,CA,100,99.2,28,220,160,-285,,M,Open Men,Raw,,,SBD
1,Andrew Herbert,CA,110,109.1,33,325,227.5,367.5,920,M,Open Men,Raw,,,SBD
2,Kade Weber,CAN,110,109.6,25,315,230,365,910,M,Open Men,Raw,,,SBD
3,David LaMartina,KS,110,108,26,330,182.5,365,877.5,M,Open Men,Raw,,377.5,SBD
4,Steve Maday,AZ,110,110,34,272.5,222.5,355,850,M,Open Men,Raw,,,SBD
5,Emillo Paez,CA,110,109.9,36,277.5,205,300,782.5,M,Open Men,Raw,,,SBD
6,Alastair MacNicol,CAN,110,103.7,28,275,182.5,310,767.5,M,Open Men,Raw,,,SBD
7,Jay Kearney,TX,110,106.5,28,245,175,285,705,M,Open Men,Raw,,,SBD
8,Christian Lee,NV,110,107.7,32,230,162.5,255,647.5,M,Open Men,Raw,,,SBD
9,James Percy,CA,110,106.9,35,202.5,160,267.5,630,M,Open Men,Raw,,,SBD
1,Perry Ellis Jr,GA,125,123.6,33,367.5,200,377.5,945,M,Open Men,Raw,,,SBD
2,David Zyski,CA,125,123.2,30,345,227.5,340,912.5,M,Open Men,Raw,,,SBD
1,Robb Philippus,IA,140,139,33,400,237.3,337.5,974.8,M,Open Men,Raw,,,SBD
2,Grant Higa,WA,140,135.9,44,315,187.5,325,827.5,M,Open Men,Raw,,,SBD
1,Derek Kendall,NY,140+,159.2,32,412.5,272.5,337.5,1022.5,M,Open Men,Raw,,,SBD
2,James Ortiz,AZ,140+,157.7,33,317.5,227.5,317.5,862.5,M,Open Men,Raw,,,SBD
DQ,Steven Maradona,CA,140+,162.4,22,-330,,,,M,Open Men,Raw,,,SBD
1,Emad Nayef,AUS,82.5,82.2,38,245,142.5,252.5,640,M,Submaster Men 35-39,Raw,,,SBD
2,David White,CA,82.5,79.4,35,192.5,102.5,222.5,517.5,M,Submaster Men 35-39,Raw,,,SBD
1,Martin Jenkins,CA,90,83.4,37,110,100,165,375,M,Submaster Men 35-39,Raw,,,SBD
1,Ray Jiminez,CA,90,88.5,47,197.5,97.5,195,490,M,Master Men 45-49,Raw,,,SBD
1,Grant Higa,WA,140,135.9,44,315,187.5,325,827.5,M,Master Men 40-44,Raw,,,SBD
1,Brianna Otto,FL,60,59.7,23,125,70,162.5,357.5,F,Junior Women 20-23,Wraps,,,SBD
1,Danielle Columby,AZ,52,51.5,31,150,77.5,165,392.5,F,Open Women,Wraps,,,SBD
1,Brianna Otto,FL,60,59.7,23,125,70,162.5,357.5,F,Open Women,Wraps,,,SBD
1,Rebecca Gleich,AUS,67.5,64.5,25,170,82.5,175,427.5,F,Open Women,Wraps,,,SBD
1,Laurie Smith,CA,75,72.5,43,185,82.5,190,457.5,F,Open Women,Wraps,,,SBD
1,Sara Berlin,FL,90+,121.2,24,232.5,115,202.5,550,F,Open Women,Wraps,,,SBD
1,Laurie Smith,CA,75,72.5,43,185,82.5,190,457.5,F,Master Women 40-44,Wraps,,,SBD
1,Jesse Markopoulos,AUS,75,72,21,200,120,210,530,M,Junior Men 20-23,Wraps,,,SBD
DQ,Max Markopoulos,AUS,82.5,81.7,23,270,160,-250,,M,Junior Men 20-23,Wraps,,,SBD
1,Travis Nelson,TN,110,105.5,22,265,165,255,685,M,Junior Men 20-23,Wraps,,,SBD
1,Jesse Markopoulos,AUS,75,72,21,200,120,210,530,M,Open Men,Wraps,,,SBD
1,Brantley Thornton,KS,82.5,82.3,26,300,192.5,300,792.5,M,Open Men,Wraps,,,SBD
2,Martin Patience,AUS,82.5,81.4,50,185,125,200,510,M,Open Men,Wraps,,,SBD
DQ,Max Markopoulos,AUS,82.5,81.7,23,270,160,-250,,M,Open Men,Wraps,,,SBD
1,Jeff Justo,CA,90,89.1,28,280,155,275,710,M,Open Men,Wraps,,,SBD
2,Dylan Hart,AUS,90,89.6,25,255,160,275,690,M,Open Men,Wraps,,,SBD
DQ,Ibn Mahama,IL,90,89.1,28,-292.5,,,,M,Open Men,Wraps,,,SBD
1,Jeremy Hamilton,CAN,100,100,34,372.5,235,355.5,963,M,Open Men,Wraps,,,SBD
2,Dan Green,CA,100,99.9,32,365,222.5,355,942.5,M,Open Men,Wraps,,,SBD
3,Alfanso Avatos,CA,100,99.6,28,272.5,145,332.5,750,M,Open Men,Wraps,,,SBD
4,Sam Olguin,AZ,100,98.2,22,272.5,170,300,742.5,M,Open Men,Wraps,,,SBD
1,Marcus Sannadan,CA,110,109.4,25,327.5,192.5,307.5,827.5,M,Open Men,Wraps,,,SBD
2,Brandon Kibler,CA,110,106.4,23,315,182.5,327.5,825,M,Open Men,Wraps,,,SBD
1,Bill Newman,CA,140,139.3,31,350,240,325,915,M,Open Men,Wraps,,,SBD
1,Andrey Malanichev,RUS,140+,161.9,38,470,265,372.5,1107.5,M,Open Men,Wraps,,,SBD
1,Melissa Reyes,,48,46.7,24,,65,,65,F,Open Women,Raw,,,B
1,Natalie Sardinia,CA,60,59.6,35,,60,,60,F,Submaster Women 35-39,Raw,,,B
1,Henry Andrade,CA,125,123.4,22,,212.5,,212.5,M,Junior Men 20-23,Raw,,,B
1,Mike Rashid,CA,100,99.6,36,,217.5,,217.5,M,Open Men,Raw,,,B
1,Jeremy Hoornstra,FL,110,109.1,34,,285,,285,M,Open Men,Raw,,,B
2,Kevin Oak,NY,110,107.7,29,,227.5,,227.5,M,Open Men,Raw,,,B
3,Michael Zundelevich,CA,110,108,34,,227.5,,227.5,M,Open Men,Raw,,,B
4,Jay Nera,CAN,110,108.9,32,,220,,220,M,Open Men,Raw,,,B
1,Larry Williams #1,NY,125,116.5,20,,247.5,,247.5,M,Open Men,Raw,,,B
1,Brandon Lilly,KY,140+,143.2,33,,227.5,,227.5,M,Open Men,Raw,,,B
DQ,Michael Carter,CA,140+,191.4,34,,-215,,,M,Open Men,Raw,,,B
1,Natalie Sardinia,CA,60,59.6,35,,,165,165,F,Open Women,Raw,,,D
1,Natalie Sardinia,CA,60,59.6,35,,,165,165,F,Submaster Women 35-39,Raw,,,D
